<?xml version="1.0" encoding="utf-8"?>
<!-- Generator: Adobe Illustrator 24.3.0, SVG Export Plug-In . SVG Version: 6.00 Build 0)  -->
<svg version="1.1" id="Layer_1" xmlns="http://www.w3.org/2000/svg" xmlns:xlink="http://www.w3.org/1999/xlink" x="0px" y="0px"
	 viewBox="0 0 98.6 96.4" style="enable-background:new 0 0 98.6 96.4;" xml:space="preserve">
<style type="text/css">
	.st0{fill:url(#SVGID_1_);}
	.st1{fill:url(#SVGID_2_);}
	.st2{fill:url(#SVGID_3_);}
	.st3{fill:url(#SVGID_4_);}
	.st4{fill:url(#SVGID_5_);}
</style>
<linearGradient id="SVGID_1_" gradientUnits="userSpaceOnUse" x1="0" y1="76.35" x2="98.6081" y2="76.35">
	<stop  offset="0" style="stop-color:#2FBFC0"/>
	<stop  offset="1" style="stop-color:#582F8D"/>
</linearGradient>
<path class="st0" d="M98.4,73.3c-0.2-0.3-4.6-6.9-16-4.3c-6.9,1.6-12.3,3.3-15.2,4.4c-0.3-2.7-2.6-4.8-5.3-5l-41.7-8.1v-2.4
	c0-0.9-0.7-1.6-1.6-1.6h-17C0.7,56.3,0,57,0,57.9v32.6c0,0.9,0.7,1.6,1.6,1.6h17c0.9,0,1.6-0.7,1.6-1.6V87c6.4,2.5,24.5,9.4,34,9.4
	c11.5,0,42.4-20.1,43.8-20.9C98.6,75,98.8,74,98.4,73.3z M3.2,88.8V59.5h13.7v2.1l0,0v23l0,0v4.2C16.9,88.8,3.2,88.8,3.2,88.8z
	 M54.1,93.2c-9.4,0-29.3-7.8-34-9.7V63.6l41.3,8c1.4,0,2.5,1.1,2.5,2.5s-1.1,2.5-2.5,2.5H38.3c-0.9,0-1.6,0.7-1.6,1.6
	s0.7,1.6,1.6,1.6h23.2c2,0,3.8-1.1,4.8-2.7c1.8-0.7,8.1-3.1,16.8-5c6.2-1.4,9.7,0.4,11.4,1.7C87.9,78,63.3,93.2,54.1,93.2z"/>
<linearGradient id="SVGID_2_" gradientUnits="userSpaceOnUse" x1="39.1" y1="28" x2="58.2" y2="28">
	<stop  offset="0" style="stop-color:#2FBFC0"/>
	<stop  offset="1" style="stop-color:#582F8D"/>
</linearGradient>
<path class="st1" d="M57.4,31.6l-7-17c-0.2-0.5-0.7-0.8-1.2-0.9c-0.5,0-1,0.3-1.3,0.8l-8.1,17.1c-0.4,0.2-0.7,0.7-0.7,1.2
	c0,5.2,4.2,9.4,9.4,9.5c0,0,0,0,0.1,0h0.1c0,0,0,0,0.1,0c5.2-0.1,9.4-4.3,9.4-9.5C58.1,32.3,57.8,31.8,57.4,31.6z M49.1,18.5
	l5.3,12.9H43L49.1,18.5z M48.6,39.5c-3.2,0-5.8-2.3-6.5-5.3h13C54.5,37.2,51.8,39.4,48.6,39.5z"/>
<linearGradient id="SVGID_3_" gradientUnits="userSpaceOnUse" x1="47.8" y1="58.8" x2="84.9" y2="58.8">
	<stop  offset="0" style="stop-color:#2FBFC0"/>
	<stop  offset="1" style="stop-color:#582F8D"/>
</linearGradient>
<path class="st2" d="M83.5,60.2H49.2c-0.8,0-1.4-0.6-1.4-1.4c0-0.8,0.6-1.4,1.4-1.4h34.3c0.8,0,1.4,0.6,1.4,1.4
	C84.9,59.6,84.3,60.2,83.5,60.2z"/>
<linearGradient id="SVGID_4_" gradientUnits="userSpaceOnUse" x1="73.7" y1="27.9" x2="92.8" y2="27.9">
	<stop  offset="0" style="stop-color:#2FBFC0"/>
	<stop  offset="1" style="stop-color:#582F8D"/>
</linearGradient>
<path class="st3" d="M92,31.5l-7-17c-0.2-0.5-0.7-0.8-1.2-0.9c-0.5,0-1,0.3-1.3,0.8l-8.1,17.1c-0.4,0.2-0.7,0.7-0.7,1.2
	c0,5.2,4.2,9.4,9.4,9.5c0,0,0,0,0.1,0h0.1c0,0,0,0,0.1,0c5.2-0.1,9.4-4.3,9.4-9.5C92.7,32.2,92.4,31.7,92,31.5z M83.7,18.4L89,31.3
	H77.6L83.7,18.4z M83.2,39.4c-3.2,0-5.8-2.3-6.5-5.3h13C89.1,37.1,86.4,39.3,83.2,39.4z"/>
<linearGradient id="SVGID_5_" gradientUnits="userSpaceOnUse" x1="47.8" y1="27.6" x2="84.9" y2="27.6">
	<stop  offset="0" style="stop-color:#2FBFC0"/>
	<stop  offset="1" style="stop-color:#582F8D"/>
</linearGradient>
<path class="st4" d="M83.5,7.9H70.7c-0.4-1.4-1.6-2.6-3-3V1.4c0-0.8-0.6-1.4-1.3-1.4C65.6,0,65,0.6,65,1.4v3.5
	c-1.4,0.5-2.5,1.6-2.9,3H49.2c-0.8,0-1.4,0.6-1.4,1.4s0.6,1.4,1.4,1.4h12.9c0.5,1.3,1.5,2.4,2.9,2.8v38.9h-8.8
	c-0.8,0-1.4,0.6-1.4,1.4s0.6,1.4,1.4,1.4h20.3c0.8,0,1.4-0.6,1.4-1.4s-0.6-1.4-1.4-1.4h-8.8V13.5c1.4-0.4,2.5-1.5,2.9-2.9h12.9
	c0.8,0,1.4-0.6,1.4-1.4S84.3,7.9,83.5,7.9z M66.4,11c-1,0-1.8-0.8-1.8-1.8s0.8-1.8,1.8-1.8s1.8,0.8,1.8,1.8S67.4,11,66.4,11z"/>
</svg>
