<?xml version="1.0" encoding="utf-8"?>
<!-- Generator: Adobe Illustrator 24.3.0, SVG Export Plug-In . SVG Version: 6.00 Build 0)  -->
<svg version="1.1" id="Layer_1" xmlns="http://www.w3.org/2000/svg" xmlns:xlink="http://www.w3.org/1999/xlink" x="0px" y="0px"
	 viewBox="0 0 579.1 63.6" style="enable-background:new 0 0 579.1 63.6;" xml:space="preserve">
<style type="text/css">
	.st0{fill:#F9CC28;}
</style>
<rect id="XMLID_371_" x="0.6" y="10.3" transform="matrix(0.9994 -3.561493e-02 3.561493e-02 0.9994 -0.9495 10.3328)" class="st0" width="578" height="43.1"/>
</svg>
