<svg width="1000" height="400" viewBox="0 0 1000 400" fill="none" xmlns="http://www.w3.org/2000/svg">
<path fill-rule="evenodd" clip-rule="evenodd" d="M178 0H0V400H178H304H750.032C756.864 400 763.223 396.512 766.896 390.751L996.396 30.7511C1004.88 17.4374 995.321 0 979.532 0H304H178Z" fill="#582F8D"/>
</svg>
